{
  "name": "5td",
  "title": "5 torches deep",
  "description": "5 torches deep, a fork based on Lamentations of the flame princess system.",
  "version": "0.0.1",
  "minimumCoreVersion": "0.6.2",
  "compatibleCoreVersion": "0.7.7",
  "templateVersion": 1,
  "author": "Namoto",
  "esmodules": ["ose.js"],
  "styles": ["ose.css"],
  "packs": [],
  "languages": [
    {
      "lang": "en",
      "name": "English",
      "path": "lang/en.json"
    },
    {
    "lang": "cn",
    "name": "Chinese",
    "path": "lang/cn.json"
    }
  ],
  "gridDistance": 5,
  "gridUnits": "ft",
  "url": "https://gitlab.com/markwithers/lotfp-to-foundry-vtt",
  "manifest": "https://gitlab.com/markwithers/lotfp-to-foundry-vtt/raw/master/system.json",
  "download": "https://gitlab.com/markwithers/lotfp-to-foundry-vtt/-/archive/master/lotfp-to-foundry-vtt-master.zip"
}
